{
    "ClusterOptions": {
        "ClusterId": "backtest",
        "ServiceId": "silo"
    },
    "SiloConfiguration": {
        "GatewayPort": 30000,
        "SiloIp": "192.168.88.254"
    },
    "JobExecutionOptions":{
        "ObserverTtlSec": 120,
        "CacheTtlSec": 3600
    },
    "AgentConnectivitySettings":{
        "KeepAliveIntervalSec": 15,
        "CacheBuildTimeout": 70,
        "CacheCleanupJobInterval": 60,
        "CacheCleanupQuotaPercent": 80
    },
    "ConnectionStrings": {
        "Redis": "192.168.88.243:6379"
    }
}